{
	"staticPath": null,
	"type": null,
	"vo": {
		"deliveryAreaName": null,
		"id": null,
		"deliveryAreaCoordinates": null,
		"shippingAreaCoordinates": null,
		"countBindBmOrg": null,
		"rejectReason": null,
		"cityName": null,
		"bmCityId": null,
		"checked": null
	},
	"tipName": null,
	"allowChange": null,
	"is_org_manager": null,
	"initDispatchStrategyVo": {
		"id": null,
		"name": null
	},
	"orgInitDispatchStrategy": null,
	"orgType": null,
	"allowIntersect": null,
	"roleCode": null,
	"opTypeList": [
		{
			"opId": null,
			"comment": null
		}
	]
}